{
  "names": [
    "Cave slime"
  ],
  "tables": [
    {
      "chance": 0.0,
      "outOf": 0.0,
      "dropOne": false,
      "drops": [
        {
          "id": 1939,
          "min": 1,
          "max": 6
        }
      ]
    },
    {
      "chance": 583.0,
      "outOf": 6250.0,
      "dropOne": false,
      "drops": [
        {
          "id": 199,
          "min": 1,
          "max": 1
        }
      ]
    },
    {
      "chance": 583.0,
      "outOf": 6250.0,
      "dropOne": false,
      "drops": [
        {
          "id": 201,
          "min": 1,
          "max": 1
        }
      ]
    },
    {
      "chance": 583.0,
      "outOf": 6250.0,
      "dropOne": false,
      "drops": [
        {
          "id": 203,
          "min": 1,
          "max": 1
        }
      ]
    },
    {
      "chance": 583.0,
      "outOf": 6250.0,
      "dropOne": false,
      "drops": [
        {
          "id": 596,
          "min": 1,
          "max": 1
        }
      ]
    },
    {
      "chance": 583.0,
      "outOf": 6250.0,
      "dropOne": false,
      "drops": [
        {
          "id": 995,
          "min": 1,
          "max": 44
        }
      ]
    },
    {
      "chance": 583.0,
      "outOf": 6250.0,
      "dropOne": false,
      "drops": [
        {
          "id": 1155,
          "min": 1,
          "max": 1
        }
      ]
    },
    {
      "chance": 583.0,
      "outOf": 6250.0,
      "dropOne": false,
      "drops": [
        {
          "id": 1191,
          "min": 1,
          "max": 1
        }
      ]
    },
    {
      "chance": 583.0,
      "outOf": 6250.0,
      "dropOne": false,
      "drops": [
        {
          "id": 1279,
          "min": 1,
          "max": 1
        }
      ]
    },
    {
      "chance": 583.0,
      "outOf": 6250.0,
      "dropOne": false,
      "drops": [
        {
          "id": 1351,
          "min": 1,
          "max": 1
        }
      ]
    },
    {
      "chance": 1749.0,
      "outOf": 100000.0,
      "dropOne": false,
      "drops": [
        {
          "id": 205,
          "min": 1,
          "max": 1
        }
      ]
    },
    {
      "chance": 1749.0,
      "outOf": 100000.0,
      "dropOne": false,
      "drops": [
        {
          "id": 209,
          "min": 1,
          "max": 1
        }
      ]
    },
    {
      "chance": 1749.0,
      "outOf": 100000.0,
      "dropOne": false,
      "drops": [
        {
          "id": 211,
          "min": 1,
          "max": 1
        }
      ]
    },
    {
      "chance": 1749.0,
      "outOf": 100000.0,
      "dropOne": false,
      "drops": [
        {
          "id": 555,
          "min": 15,
          "max": 15
        }
      ]
    },
    {
      "chance": 1749.0,
      "outOf": 100000.0,
      "dropOne": false,
      "drops": [
        {
          "id": 557,
          "min": 5,
          "max": 5
        }
      ]
    },
    {
      "chance": 1749.0,
      "outOf": 100000.0,
      "dropOne": false,
      "drops": [
        {
          "id": 559,
          "min": 7,
          "max": 7
        }
      ]
    },
    {
      "chance": 1749.0,
      "outOf": 100000.0,
      "dropOne": false,
      "drops": [
        {
          "id": 4535,
          "min": 1,
          "max": 1
        }
      ]
    },
    {
      "chance": 1749.0,
      "outOf": 100000.0,
      "dropOne": false,
      "drops": [
        {
          "id": 4540,
          "min": 1,
          "max": 1
        }
      ]
    },
    {
      "chance": 233.0,
      "outOf": 100000.0,
      "dropOne": false,
      "drops": [
        {
          "id": 207,
          "min": 1,
          "max": 1
        }
      ]
    },
    {
      "chance": 233.0,
      "outOf": 100000.0,
      "dropOne": false,
      "drops": [
        {
          "id": 213,
          "min": 1,
          "max": 1
        }
      ]
    },
    {
      "chance": 233.0,
      "outOf": 100000.0,
      "dropOne": false,
      "drops": [
        {
          "id": 215,
          "min": 1,
          "max": 1
        }
      ]
    },
    {
      "chance": 233.0,
      "outOf": 100000.0,
      "dropOne": false,
      "drops": [
        {
          "id": 1452,
          "min": 1,
          "max": 1
        }
      ]
    },
    {
      "chance": 233.0,
      "outOf": 100000.0,
      "dropOne": false,
      "drops": [
        {
          "id": 1462,
          "min": 1,
          "max": 1
        }
      ]
    },
    {
      "chance": 233.0,
      "outOf": 100000.0,
      "dropOne": false,
      "drops": [
        {
          "id": 2357,
          "min": 1,
          "max": 1
        }
      ]
    },
    {
      "chance": 233.0,
      "outOf": 100000.0,
      "dropOne": false,
      "drops": [
        {
          "id": 4121,
          "min": 1,
          "max": 1
        }
      ]
    },
    {
      "chance": 31.0,
      "outOf": 50000.0,
      "dropOne": false,
      "drops": [
        {
          "id": 217,
          "min": 1,
          "max": 1
        }
      ]
    },
    {
      "chance": 31.0,
      "outOf": 50000.0,
      "dropOne": false,
      "drops": [
        {
          "id": 830,
          "min": 1,
          "max": 1
        }
      ]
    },
    {
      "chance": 31.0,
      "outOf": 50000.0,
      "dropOne": false,
      "drops": [
        {
          "id": 2485,
          "min": 1,
          "max": 1
        }
      ]
    }
  ]
}