{
  "names": [
    "Fungal mage"
  ],
  "tables": [
    {
      "chance": 0.0,
      "outOf": 0.0,
      "dropOne": false,
      "drops": [
        {
          "id": 20266,
          "min": 1,
          "max": 1
        }
      ]
    },
	{
      "chance": 0.0,
      "outOf": 0.0,
      "dropOne": false,
      "drops": [
        {
          "id": 22445,
          "min": 1,
          "max": 3
        }
      ]
    },
    {
      "chance": 751.0,
      "outOf": 6250.0,
      "dropOne": false,
      "drops": [
        {
          "id": 226,
          "min": 1,
          "max": 1
        }
      ]
    },
    {
      "chance": 751.0,
      "outOf": 6250.0,
      "dropOne": false,
      "drops": [
        {
          "id": 232,
          "min": 4,
          "max": 4
        }
      ]
    },
    {
      "chance": 751.0,
      "outOf": 6250.0,
      "dropOne": false,
      "drops": [
        {
          "id": 562,
          "min": 15,
          "max": 40
        }
      ]
    },
    {
      "chance": 751.0,
      "outOf": 6250.0,
      "dropOne": false,
      "drops": [
        {
          "id": 3139,
          "min": 8,
          "max": 8
        }
      ]
    },
    {
      "chance": 751.0,
      "outOf": 6250.0,
      "dropOne": false,
      "drops": [
        {
          "id": 7937,
          "min": 25,
          "max": 25
        }
      ]
    },
    {
      "chance": 751.0,
      "outOf": 6250.0,
      "dropOne": false,
      "drops": [
        {
          "id": 22448,
          "min": 1,
          "max": 100
        }
      ]
    },
    {
      "chance": 751.0,
      "outOf": 6250.0,
      "dropOne": false,
      "drops": [
        {
          "id": 22449,
          "min": 1,
          "max": 90
        }
      ]
    },
    {
      "chance": 219.0,
      "outOf": 25000.0,
      "dropOne": false,
      "drops": [
        {
          "id": 5100,
          "min": 1,
          "max": 1
        }
      ]
    },
    {
      "chance": 219.0,
      "outOf": 25000.0,
      "dropOne": false,
      "drops": [
        {
          "id": 5104,
          "min": 1,
          "max": 1
        }
      ]
    },
    {
      "chance": 219.0,
      "outOf": 25000.0,
      "dropOne": false,
      "drops": [
        {
          "id": 5106,
          "min": 1,
          "max": 1
        }
      ]
    },
    {
      "chance": 219.0,
      "outOf": 25000.0,
      "dropOne": false,
      "drops": [
        {
          "id": 5280,
          "min": 1,
          "max": 1
        }
      ]
    },
    {
      "chance": 219.0,
      "outOf": 25000.0,
      "dropOne": false,
      "drops": [
        {
          "id": 5281,
          "min": 1,
          "max": 1
        }
      ]
    },
    {
      "chance": 219.0,
      "outOf": 25000.0,
      "dropOne": false,
      "drops": [
        {
          "id": 5282,
          "min": 1,
          "max": 1
        }
      ]
    },
    {
      "chance": 219.0,
      "outOf": 25000.0,
      "dropOne": false,
      "drops": [
        {
          "id": 5292,
          "min": 1,
          "max": 1
        }
      ]
    },
    {
      "chance": 219.0,
      "outOf": 25000.0,
      "dropOne": false,
      "drops": [
        {
          "id": 5293,
          "min": 1,
          "max": 1
        }
      ]
    },
    {
      "chance": 219.0,
      "outOf": 25000.0,
      "dropOne": false,
      "drops": [
        {
          "id": 5294,
          "min": 1,
          "max": 1
        }
      ]
    },
    {
      "chance": 219.0,
      "outOf": 25000.0,
      "dropOne": false,
      "drops": [
        {
          "id": 5295,
          "min": 1,
          "max": 1
        }
      ]
    },
    {
      "chance": 219.0,
      "outOf": 25000.0,
      "dropOne": false,
      "drops": [
        {
          "id": 5295,
          "min": 1,
          "max": 1
        }
      ]
    },
    {
      "chance": 219.0,
      "outOf": 25000.0,
      "dropOne": false,
      "drops": [
        {
          "id": 5297,
          "min": 1,
          "max": 1
        }
      ]
    },
    {
      "chance": 219.0,
      "outOf": 25000.0,
      "dropOne": false,
      "drops": [
        {
          "id": 5299,
          "min": 1,
          "max": 1
        }
      ]
    },
    {
      "chance": 219.0,
      "outOf": 25000.0,
      "dropOne": false,
      "drops": [
        {
          "id": 5311,
          "min": 1,
          "max": 1
        }
      ]
    },
    {
      "chance": 219.0,
      "outOf": 25000.0,
      "dropOne": false,
      "drops": [
        {
          "id": 5323,
          "min": 1,
          "max": 1
        }
      ]
    },
    {
      "chance": 219.0,
      "outOf": 25000.0,
      "dropOne": false,
      "drops": [
        {
          "id": 12176,
          "min": 1,
          "max": 1
        }
      ]
    },
    {
      "chance": 267.0,
      "outOf": 100000.0,
      "dropOne": false,
      "drops": [
        {
          "id": 5296,
          "min": 1,
          "max": 1
        }
      ]
    },
    {
      "chance": 267.0,
      "outOf": 100000.0,
      "dropOne": false,
      "drops": [
        {
          "id": 5300,
          "min": 1,
          "max": 1
        }
      ]
    },
    {
      "chance": 267.0,
      "outOf": 100000.0,
      "dropOne": false,
      "drops": [
        {
          "id": 5301,
          "min": 1,
          "max": 1
        }
      ]
    },
    {
      "chance": 267.0,
      "outOf": 100000.0,
      "dropOne": false,
      "drops": [
        {
          "id": 5302,
          "min": 1,
          "max": 1
        }
      ]
    },
    {
      "chance": 267.0,
      "outOf": 100000.0,
      "dropOne": false,
      "drops": [
        {
          "id": 5303,
          "min": 1,
          "max": 1
        }
      ]
    },
    {
      "chance": 267.0,
      "outOf": 100000.0,
      "dropOne": false,
      "drops": [
        {
          "id": 5304,
          "min": 1,
          "max": 1
        }
      ]
    },
    {
      "chance": 267.0,
      "outOf": 100000.0,
      "dropOne": false,
      "drops": [
        {
          "id": 5321,
          "min": 1,
          "max": 1
        }
      ]
    }
  ]
}